<?xml version="1.0" encoding="utf-8"?>
<!-- Generator: Adobe Illustrator 17.0.0, SVG Export Plug-In . SVG Version: 6.00 Build 0)  -->
<!DOCTYPE svg PUBLIC "-//W3C//DTD SVG 1.1//EN" "http://www.w3.org/Graphics/SVG/1.1/DTD/svg11.dtd">
<svg version="1.1" id="Layer_1" xmlns="http://www.w3.org/2000/svg" xmlns:xlink="http://www.w3.org/1999/xlink" x="0px" y="0px"
	 width="190.026px" height="412.347px" viewBox="384.987 47.6 190.026 412.347"
	 enable-background="new 384.987 47.6 190.026 412.347" xml:space="preserve" fill="white">
<path d="M384.987,365.12c0-15.867,3.733-30.613,11.013-44.427s17.547-25.2,30.8-34.347V101.173c0-14.933,5.04-27.627,15.307-37.893
	C452.373,53.013,465.067,47.6,480,47.6c15.12,0,27.813,5.227,38.08,15.493c10.267,10.453,15.493,22.96,15.493,37.893V286.16
	c13.253,9.147,23.333,20.72,30.613,34.347c7.28,13.627,10.827,28.56,10.827,44.427c0,17.173-4.293,33.227-12.693,47.787
	c-8.4,14.56-19.973,26.133-34.533,34.533S497.36,459.947,480,459.947c-17.173,0-33.04-4.293-47.6-12.693
	s-26.133-19.973-34.72-34.533C389.093,398.16,384.987,382.293,384.987,365.12z M417.84,365.12c0,17.36,6.16,32.293,18.293,44.613
	s26.88,18.48,44.053,18.48c17.36,0,32.293-6.16,44.8-18.667s18.853-27.253,18.853-44.24c0-11.573-2.987-22.4-8.96-32.293
	s-14.187-17.547-24.64-22.96l-5.227-2.613c-1.867-0.747-2.8-2.613-2.8-5.413V101.173c0-5.973-2.053-11.013-6.347-15.12
	c-4.293-3.92-9.52-5.973-15.867-5.973c-5.973,0-11.2,2.053-15.493,5.973s-6.347,8.96-6.347,15.12v200.48
	c0,2.8-0.933,4.667-2.613,5.413l-5.04,2.613c-10.267,5.413-18.293,13.067-24.08,22.96C420.64,342.533,417.84,353.173,417.84,365.12z
	 M432.4,365.12c0,13.253,4.48,24.64,13.627,33.973c9.147,9.333,19.973,14,32.853,14s23.893-4.667,33.413-14
	s14.187-20.72,14.187-33.787c0-11.76-4.107-22.213-12.133-31.173c-8.027-8.96-17.92-14.373-29.493-15.867V180.88
	c0-1.12,1.213-76.109-0.093-77.229c-1.307-1.307-2.613-1.867-4.107-1.867c-1.68,0-2.987,0.56-3.92,1.493
	c-0.933,1.12-1.493,2.24-1.493,3.92l-1.773,210.696c-11.387,1.68-21.093,6.907-29.12,15.867
	C436.32,342.907,432.4,353.173,432.4,365.12z"/>
</svg>
